
********************************************* SOCIOS Search Media Item ******************************************************************

[Mar Mon 26 12:46:28:568] Calling GetPerson()...
[Mar Mon 26 12:46:28:571] Calling GetPerson() function...
[Mar Mon 26 12:46:28:573] Calling GetPersons() service...
[Mar Mon 26 12:46:29:762] GetPersons() service returned 1 persons. | 1.186sec
[Mar Mon 26 12:46:29:765] GetPerson() Complete. People count: 1 | 1.193sec
[Mar Mon 26 12:46:29:767] Calling GetTransactionsUrlAndFlag() - (get_transactions)...
[Mar Mon 26 12:46:29:770] Generating POST xml...
[Mar Mon 26 12:46:29:773] Sending POST request to Flexiprice (get_transactions)...
[Mar Mon 26 12:46:29:826] POST request response received | 0.049sec
[Mar Mon 26 12:46:29:828] Token and flag retrieved | Token: c1a67a8c35d3a5348aa933e824fd639b | flag: True | 0.06sec
[Mar Mon 26 12:46:29:834] Calling FindMediaItems() function...
[Mar Mon 26 12:46:29:837] Keywords: syria
[Mar Mon 26 12:46:29:840] Calling FindMediaItems() service...
[Mar Mon 26 12:46:57:878] FindMediaItems() service returned 105 mediaitems. | 28.036sec

*** Glassfish ***


[#|2012-04-04T12:45:01.225+0300|INFO|glassfish3.1|javax.enterprise.system.std.com.sun.enterprise.server.logging|_ThreadID=93;_ThreadName=Thread-1;|[findMediaItems] Printing Object ids|#]

[#|2012-04-04T12:45:01.225+0300|INFO|glassfish3.1|javax.enterprise.system.std.com.sun.enterprise.server.logging|_ThreadID=93;_ThreadName=Thread-1;|[printObjectIds] id.idnull|#]

[#|2012-04-04T12:45:01.226+0300|INFO|glassfish3.1|javax.enterprise.system.std.com.sun.enterprise.server.logging|_ThreadID=93;_ThreadName=Thread-1;|id.source DAILYMOTION|#]

[#|2012-04-04T12:45:01.226+0300|INFO|glassfish3.1|javax.enterprise.system.std.com.sun.enterprise.server.logging|_ThreadID=93;_ThreadName=Thread-1;|[printObjectIds] id.idnull|#]

[#|2012-04-04T12:45:01.226+0300|INFO|glassfish3.1|javax.enterprise.system.std.com.sun.enterprise.server.logging|_ThreadID=93;_ThreadName=Thread-1;|id.source FACEBOOK|#]

[#|2012-04-04T12:45:01.226+0300|INFO|glassfish3.1|javax.enterprise.system.std.com.sun.enterprise.server.logging|_ThreadID=93;_ThreadName=Thread-1;|[printObjectIds] id.idnull|#]

[#|2012-04-04T12:45:01.227+0300|INFO|glassfish3.1|javax.enterprise.system.std.com.sun.enterprise.server.logging|_ThreadID=93;_ThreadName=Thread-1;|id.source FLICKR|#]

[#|2012-04-04T12:45:01.227+0300|INFO|glassfish3.1|javax.enterprise.system.std.com.sun.enterprise.server.logging|_ThreadID=93;_ThreadName=Thread-1;|[printObjectIds] id.idnull|#]

[#|2012-04-04T12:45:01.227+0300|INFO|glassfish3.1|javax.enterprise.system.std.com.sun.enterprise.server.logging|_ThreadID=93;_ThreadName=Thread-1;|id.source MYSPACE|#]

[#|2012-04-04T12:45:01.227+0300|INFO|glassfish3.1|javax.enterprise.system.std.com.sun.enterprise.server.logging|_ThreadID=93;_ThreadName=Thread-1;|[printObjectIds] id.idnull|#]

[#|2012-04-04T12:45:01.228+0300|INFO|glassfish3.1|javax.enterprise.system.std.com.sun.enterprise.server.logging|_ThreadID=93;_ThreadName=Thread-1;|id.source TWITTER|#]

[#|2012-04-04T12:45:01.228+0300|INFO|glassfish3.1|javax.enterprise.system.std.com.sun.enterprise.server.logging|_ThreadID=93;_ThreadName=Thread-1;|[printObjectIds] id.idnull|#]

[#|2012-04-04T12:45:01.228+0300|INFO|glassfish3.1|javax.enterprise.system.std.com.sun.enterprise.server.logging|_ThreadID=93;_ThreadName=Thread-1;|id.source YOUTUBE|#]

[#|2012-04-04T12:45:01.229+0300|INFO|glassfish3.1|javax.enterprise.system.std.com.sun.enterprise.server.logging|_ThreadID=93;_ThreadName=Thread-1;|[resolveIds]  ids not null|#]

[#|2012-04-04T12:45:01.229+0300|INFO|glassfish3.1|javax.enterprise.system.std.com.sun.enterprise.server.logging|_ThreadID=93;_ThreadName=Thread-1;|[resolveIds] id.getId() = null id.getSource().getKnownSns() DAILYMOTION|#]

[#|2012-04-04T12:45:01.229+0300|INFO|glassfish3.1|javax.enterprise.system.std.com.sun.enterprise.server.logging|_ThreadID=93;_ThreadName=Thread-1;|[resolveIds] id.getId() = null id.getSource().getKnownSns() FACEBOOK|#]

[#|2012-04-04T12:45:01.229+0300|INFO|glassfish3.1|javax.enterprise.system.std.com.sun.enterprise.server.logging|_ThreadID=93;_ThreadName=Thread-1;|[resolveIds] id.getId() = null id.getSource().getKnownSns() FLICKR|#]

[#|2012-04-04T12:45:01.230+0300|INFO|glassfish3.1|javax.enterprise.system.std.com.sun.enterprise.server.logging|_ThreadID=93;_ThreadName=Thread-1;|[resolveIds] id.getId() = null id.getSource().getKnownSns() MYSPACE|#]

[#|2012-04-04T12:45:01.230+0300|INFO|glassfish3.1|javax.enterprise.system.std.com.sun.enterprise.server.logging|_ThreadID=93;_ThreadName=Thread-1;|[resolveIds] id.getId() = null id.getSource().getKnownSns() TWITTER|#]

[#|2012-04-04T12:45:01.230+0300|INFO|glassfish3.1|javax.enterprise.system.std.com.sun.enterprise.server.logging|_ThreadID=93;_ThreadName=Thread-1;|[resolveIds] id.getId() = null id.getSource().getKnownSns() YOUTUBE|#]

[#|2012-04-04T12:45:01.231+0300|INFO|glassfish3.1|javax.enterprise.system.std.com.sun.enterprise.server.logging|_ThreadID=93;_ThreadName=Thread-1;|[getAccessTokens] id = 3 userId =  99|#]

[#|2012-04-04T12:45:01.239+0300|INFO|glassfish3.1|javax.enterprise.system.std.com.sun.enterprise.server.logging|_ThreadID=93;_ThreadName=Thread-1;|[getAccessTokens] id = 1 userId =  99|#]

[#|2012-04-04T12:45:01.245+0300|INFO|glassfish3.1|javax.enterprise.system.std.com.sun.enterprise.server.logging|_ThreadID=93;_ThreadName=Thread-1;|[getAccessTokens] id = 6 userId =  99|#]

[#|2012-04-04T12:45:01.245+0300|INFO|glassfish3.1|javax.enterprise.system.std.com.sun.enterprise.server.logging|_ThreadID=93;_ThreadName=Thread-1;|[getAccessTokens] id = 5 userId =  99|#]

[#|2012-04-04T12:45:01.251+0300|INFO|glassfish3.1|javax.enterprise.system.std.com.sun.enterprise.server.logging|_ThreadID=93;_ThreadName=Thread-1;|[getAccessTokens] id = 4 userId =  99|#]

[#|2012-04-04T12:45:01.251+0300|INFO|glassfish3.1|javax.enterprise.system.std.com.sun.enterprise.server.logging|_ThreadID=93;_ThreadName=Thread-1;|[getAccessTokens] id = 2 userId =  99|#]

[#|2012-04-04T12:45:01.258+0300|INFO|glassfish3.1|javax.enterprise.system.std.com.sun.enterprise.server.logging|_ThreadID=93;_ThreadName=Thread-1;|Adding twitter token|#]

[#|2012-04-04T12:45:01.258+0300|INFO|glassfish3.1|javax.enterprise.system.std.com.sun.enterprise.server.logging|_ThreadID=93;_ThreadName=Thread-1;|Adding flickr token : 72157629722169419-a6a1a0b2b9562d43|#]

[#|2012-04-04T12:45:01.259+0300|INFO|glassfish3.1|javax.enterprise.system.std.com.sun.enterprise.server.logging|_ThreadID=93;_ThreadName=Thread-1;|Adding facebook token|#]

[#|2012-04-04T12:45:01.997+0300|INFO|glassfish3.1|javax.enterprise.system.std.com.sun.enterprise.server.logging|_ThreadID=93;_ThreadName=Thread-1;|Calling sn class eu.sociosproject.sociosapi.server.adaptors.dailymotion.DailymotionAdaptor|#]

[#|2012-04-04T12:45:03.663+0300|INFO|glassfish3.1|javax.enterprise.system.std.com.sun.enterprise.server.logging|_ThreadID=93;_ThreadName=Thread-1;|[Dailymotion]:findMediaItems: items.length = 10|#]

[#|2012-04-04T12:45:03.686+0300|INFO|glassfish3.1|javax.enterprise.system.std.com.sun.enterprise.server.logging|_ThreadID=93;_ThreadName=Thread-1;|Calling sn class eu.sociosproject.sociosapi.server.adaptors.youtube.YoutubeAdaptor|#]

[#|2012-04-04T12:45:04.618+0300|INFO|glassfish3.1|javax.enterprise.system.std.com.sun.enterprise.server.logging|_ThreadID=93;_ThreadName=Thread-1;|[Youtube]:findMediaItems: items.length = 25|#]

[#|2012-04-04T12:45:04.618+0300|INFO|glassfish3.1|javax.enterprise.system.std.com.sun.enterprise.server.logging|_ThreadID=93;_ThreadName=Thread-1;|Calling sn class eu.sociosproject.sociosapi.server.adaptors.twitter.TwitterAdapter|#]

[#|2012-04-04T12:45:22.226+0300|INFO|glassfish3.1|javax.enterprise.system.std.com.sun.enterprise.server.logging|_ThreadID=93;_ThreadName=Thread-1;|Calling sn class eu.sociosproject.sociosapi.server.adaptors.flickr.FlickrAdaptor|#]

[#|2012-04-04T12:45:22.226+0300|INFO|glassfish3.1|javax.enterprise.system.std.com.sun.enterprise.server.logging|_ThreadID=93;_ThreadName=Thread-1;|filterMediaItem: eu.sociosproject.sociosvoc.MediaItemFilter@5d226b2b|#]

[#|2012-04-04T12:45:22.227+0300|INFO|glassfish3.1|javax.enterprise.system.std.com.sun.enterprise.server.logging|_ThreadID=93;_ThreadName=Thread-1;|requestUrl: http://api.flickr.com/services/rest/?method=flickr.photos.search&api_key=14ff18bc9d73b8630cd0a4f9e8bd4d54&format=json&nojsoncallback=1&extras=description,license,date_upload,date_taken,owner_name,icon_server,original_format,last_update,geo,tags,machine_tags,o_dims,views,media,path_alias,url_sq,url_t,url_s,url_m,url_z,url_l,url_o&per_page=10&text=syria%20syria&tags=syria|#]

[#|2012-04-04T12:45:23.880+0300|INFO|glassfish3.1|javax.enterprise.system.std.com.sun.enterprise.server.logging|_ThreadID=93;_ThreadName=Thread-1;|response 1: {"photos":{"page":1, "pages":27752, "perpage":10, "total":"277516", "photo":[{"id":"6898400390", "owner":"74849656@N04", "secret":"c065639828", "server":"7252", "farm":8, "title":"INDIAN ARMY AT UNDOF SYRIA", "ispublic":1, "isfriend":0, "isfamily":0, "description":{"_content":""}, "license":"0", "dateupload":"1333532676", "datetaken":"2008-02-15 06:41:23", "datetakengranularity":"0", "ownername":"Prasavit sangwan", "iconserver":"7264", "iconfarm":8, "lastupdate":"1333532684", "latitude":0, "longitude":0, "accuracy":0, "context":0, "tags":"", "machine_tags":"", "views":"0", "media":"photo", "media_status":"ready", "pathalias":"prasavitsangwan", "url_sq":"http:\/\/farm8.staticflickr.com\/7252\/6898400390_c065639828_s.jpg", "height_sq":75, "width_sq":75, "url_t":"http:\/\/farm8.staticflickr.com\/7252\/6898400390_c065639828_t.jpg", "height_t":"75", "width_t":"100", "url_s":"http:\/\/farm8.staticflickr.com\/7252\/6898400390_c065639828_m.jpg", "height_s":"180", "width_s":"240", "url_m":"http:\/\/farm8.staticflickr.com\/7252\/6898400390_c065639828.jpg", "height_m":"375", "width_m":"500", "url_z":"http:\/\/farm8.staticflickr.com\/7252\/6898400390_c065639828_z.jpg", "height_z":"480", "width_z":"640", "url_l":"http:\/\/farm8.staticflickr.com\/7252\/6898400390_c065639828_b.jpg", "height_l":"768", "width_l":"1024"}, {"id":"6898392708", "owner":"78039495@N05", "secret":"87118a59e5", "server":"7093", "farm":8, "title":"Damas", "ispublic":1, "isfriend":0, "isfamily":0, "description":{"_content":"SYRIA"}, "license":"0", "dateupload":"1333532402", "datetaken":"2012-04-04 11:40:02", "datetakengranularity":"0", "ownername":"Mike PiresDaSilva", "iconserver":"7057", "iconfarm":8, "lastupdate":"1333532666", "latitude":0, "longitude":0, "accuracy":0, "context":0, "tags":"", "machine_tags":"", "views":"0", "media":"photo", "media_status":"ready", "pathalias":"mikepiresdasilva", "url_sq":"http:\/\/farm8.staticflickr.com\/7093\/6898392708_87118a59e5_s.jpg", "height_sq":75, "width_sq":75, "url_t":"http:\/\/farm8.staticflickr.com\/7093\/6898392708_87118a59e5_t.jpg", "height_t":"75", "width_t":"100", "url_s":"http:\/\/farm8.staticflickr.com\/7093\/6898392708_87118a59e5_m.jpg", "height_s":"180", "width_s":"240", "url_m":"http:\/\/farm8.staticflickr.com\/7093\/6898392708_87118a59e5.jpg", "height_m":"375", "width_m":"500", "url_z":"http:\/\/farm8.staticflickr.com\/7093\/6898392708_87118a59e5_z.jpg", "height_z":"440", "width_z":"587"}, {"id":"6898392816", "owner":"78039495@N05", "secret":"7dfdec4a86", "server":"5335", "farm":6, "title":"Damas", "ispublic":1, "isfriend":0, "isfamily":0, "description":{"_content":"SYRIA"}, "license":"0", "dateupload":"1333532406", "datetaken":"2012-04-04 11:40:06", "datetakengranularity":"0", "ownername":"Mike PiresDaSilva", "iconserver":"7057", "iconfarm":8, "lastupdate":"1333532656", "latitude":0, "longitude":0, "accuracy":0, "context":0, "tags":"", "machine_tags":"", "views":"0", "media":"photo", "media_status":"ready", "pathalias":"mikepiresdasilva", "url_sq":"http:\/\/farm6.staticflickr.com\/5335\/6898392816_7dfdec4a86_s.jpg", "height_sq":75, "width_sq":75, "url_t":"http:\/\/farm6.staticflickr.com\/5335\/6898392816_7dfdec4a86_t.jpg", "height_t":"100", "width_t":"74", "url_s":"http:\/\/farm6.staticflickr.com\/5335\/6898392816_7dfdec4a86_m.jpg", "height_s":"240", "width_s":"177", "url_m":"http:\/\/farm6.staticflickr.com\/5335\/6898392816_7dfdec4a86.jpg", "height_m":"500", "width_m":"368", "url_z":"http:\/\/farm6.staticflickr.com\/5335\/6898392816_7dfdec4a86_z.jpg", "height_z":"604", "width_z":"445"}, {"id":"7044490239", "owner":"78039495@N05", "secret":"44ce62a003", "server":"7139", "farm":8, "title":"Damas", "ispublic":1, "isfriend":0, "isfamily":0, "description":{"_content":"SYRIA"}, "license":"0", "dateupload":"1333532410", "datetaken":"2012-04-04 11:40:10", "datetakengranularity":"0", "ownername":"Mike PiresDaSilva", "iconserver":"7057", "iconfarm":8, "lastupdate":"1333532798", "latitude":33.51921, "longitude":36.313308, "accuracy":"11", "context":0, "place_id":"QymV9oRQW75Q9d_E", "woeid":"1947122", "geo_is_family":0, "geo_is_friend":0, "geo_is_contact":0, "geo_is_public":1, "tags":"", "machine_tags":"", "views":"0", "media":"photo", "media_status":"ready", "pathalias":"mikepiresdasilva", "url_sq":"http:\/\/farm8.staticflickr.com\/7139\/7044490239_44ce62a003_s.jpg", "height_sq":75, "width_sq":75, "url_t":"http:\/\/farm8.staticflickr.com\/7139\/7044490239_44ce62a003_t.jpg", "height_t":"100", "width_t":"75", "url_s":"http:\/\/farm8.staticflickr.com\/7139\/7044490239_44ce62a003_m.jpg", "height_s":"240", "width_s":"180", "url_m":"http:\/\/farm8.staticflickr.com\/7139\/7044490239_44ce62a003.jpg", "height_m":"500", "width_m":"375", "url_z":"http:\/\/farm8.staticflickr.com\/7139\/7044490239_44ce62a003_z.jpg", "height_z":"604", "width_z":"453"}, {"id":"7044489477", "owner":"74849656@N04", "secret":"c44f4797dd", "server":"7039", "farm":8, "title":"INDIAN ARMY AT UNDOF SYRIA", "ispublic":1, "isfriend":0, "isfamily":0, "description":{"_content":""}, "license":"0", "dateupload":"1333532382", "datetaken":"2008-02-24 23:01:55", "datetakengranularity":"0", "ownername":"Prasavit sangwan", "iconserver":"7264", "iconfarm":8, "lastupdate":"1333532386", "latitude":0, "longitude":0, "accuracy":0, "context":0, "tags":"", "machine_tags":"", "views":"0", "media":"photo", "media_status":"ready", "pathalias":"prasavitsangwan", "url_sq":"http:\/\/farm8.staticflickr.com\/7039\/7044489477_c44f4797dd_s.jpg", "height_sq":75, "width_sq":75, "url_t":"http:\/\/farm8.staticflickr.com\/7039\/7044489477_c44f4797dd_t.jpg", "height_t":"56", "width_t":"100", "url_s":"http:\/\/farm8.staticflickr.com\/7039\/7044489477_c44f4797dd_m.jpg", "height_s":"135", "width_s":"240", "url_m":"http:\/\/farm8.staticflickr.com\/7039\/7044489477_c44f4797dd.jpg", "height_m":"281", "width_m":"500", "url_z":"http:\/\/farm8.staticflickr.com\/7039\/7044489477_c44f4797dd_z.jpg", "height_z":"360", "width_z":"640", "url_l":"http:\/\/farm8.staticflickr.com\/7039\/7044489477_c44f4797dd_b.jpg", "height_l":"576", "width_l":"1024"}, {"id":"6898389480", "owner":"74849656@N04", "secret":"115d679d0c", "server":"7060", "farm":8, "title":"INDIAN ARMY AT UNDOF SYRIA", "ispublic":1, "isfriend":0, "isfamily":0, "description":{"_content":""}, "license":"0", "dateupload":"1333532280", "datetaken":"2008-02-15 06:40:37", "datetakengranularity":"0", "ownername":"Prasavit sangwan", "iconserver":"7264", "iconfarm":8, "lastupdate":"1333532287", "latitude":0, "longitude":0, "accuracy":0, "context":0, "tags":"", "machine_tags":"", "views":"1", "media":"photo", "media_status":"ready", "pathalias":"prasavitsangwan", "url_sq":"http:\/\/farm8.staticflickr.com\/7060\/6898389480_115d679d0c_s.jpg", "height_sq":75, "width_sq":75, "url_t":"http:\/\/farm8.staticflickr.com\/7060\/6898389480_115d679d0c_t.jpg", "height_t":"75", "width_t":"100", "url_s":"http:\/\/farm8.staticflickr.com\/7060\/6898389480_115d679d0c_m.jpg", "height_s":"180", "width_s":"240", "url_m":"http:\/\/farm8.staticflickr.com\/7060\/6898389480_115d679d0c.jpg", "height_m":"375", "width_m":"500", "url_z":"http:\/\/farm8.staticflickr.com\/7060\/6898389480_115d679d0c_z.jpg", "height_z":"480", "width_z":"640", "url_l":"http:\/\/farm8.staticflickr.com\/7060\/6898389480_115d679d0c_b.jpg", "height_l":"768", "width_l":"1024"}, {"id":"6898374794", "owner":"74849656@N04", "secret":"8d38785c85", "server":"5330", "farm":6, "title":"INDIAN ARMY AT UNDOF SYRIA", "ispublic":1, "isfriend":0, "isfamily":0, "description":{"_content":""}, "license":"0", "dateupload":"1333531691", "datetaken":"2008-02-15 06:40:28", "datetakengranularity":"0", "ownername":"Prasavit sangwan", "iconserver":"7264", "iconfarm":8, "lastupdate":"1333531697", "latitude":0, "longitude":0, "accuracy":0, "context":0, "tags":"", "machine_tags":"", "views":"0", "media":"photo", "media_status":"ready", "pathalias":"prasavitsangwan", "url_sq":"http:\/\/farm6.staticflickr.com\/5330\/6898374794_8d38785c85_s.jpg", "height_sq":75, "width_sq":75, "url_t":"http:\/\/farm6.staticflickr.com\/5330\/6898374794_8d38785c85_t.jpg", "height_t":"75", "width_t":"100", "url_s":"http:\/\/farm6.staticflickr.com\/5330\/689|#]

[#|2012-04-04T12:45:23.881+0300|INFO|glassfish3.1|javax.enterprise.system.std.com.sun.enterprise.server.logging|_ThreadID=93;_ThreadName=Thread-1;|8374794_8d38785c85_m.jpg", "height_s":"180", "width_s":"240", "url_m":"http:\/\/farm6.staticflickr.com\/5330\/6898374794_8d38785c85.jpg", "height_m":"375", "width_m":"500", "url_z":"http:\/\/farm6.staticflickr.com\/5330\/6898374794_8d38785c85_z.jpg", "height_z":"480", "width_z":"640", "url_l":"http:\/\/farm6.staticflickr.com\/5330\/6898374794_8d38785c85_b.jpg", "height_l":"768", "width_l":"1024"}, {"id":"6898349440", "owner":"73417053@N05", "secret":"a16a56a87c", "server":"5032", "farm":6, "title":"Photo", "ispublic":1, "isfriend":0, "isfamily":0, "description":{"_content":", \u0631\u0627\u0628\u0637 \u0627\u0644\u062f\u0642\u0629 \u0627\u0644\u0639\u0627\u0644\u064a\u0629 High Resolution: <a href=\"http:\/\/on.fb.me\/Hk4n0u\" rel=\"nofollow\">on.fb.me\/Hk4n0u<\/a>"}, "license":"2", "dateupload":"1333530690", "datetaken":"2012-04-04 12:11:30", "datetakengranularity":"0", "ownername":"DoumaRevolution", "iconserver":"7160", "iconfarm":8, "originalsecret":"0a24abf1b0", "originalformat":"jpg", "lastupdate":"1333530694", "latitude":0, "longitude":0, "accuracy":0, "context":0, "tags":"people news freedom politics demonstration human arab rights revolution syria damascus bashar mar15 douma alassad arabspring", "machine_tags":"", "o_width":"240", "o_height":"320", "views":"0", "media":"photo", "media_status":"ready", "pathalias":"doumarevolution", "url_sq":"http:\/\/farm6.staticflickr.com\/5032\/6898349440_a16a56a87c_s.jpg", "height_sq":75, "width_sq":75, "url_t":"http:\/\/farm6.staticflickr.com\/5032\/6898349440_a16a56a87c_t.jpg", "height_t":"100", "width_t":"75", "url_s":"http:\/\/farm6.staticflickr.com\/5032\/6898349440_a16a56a87c_m.jpg", "height_s":"240", "width_s":"180", "url_m":"http:\/\/farm6.staticflickr.com\/5032\/6898349440_a16a56a87c.jpg", "height_m":"320", "width_m":"240", "url_o":"http:\/\/farm6.staticflickr.com\/5032\/6898349440_0a24abf1b0_o.jpg", "height_o":"320", "width_o":"240"}, {"id":"6898067648", "owner":"73417053@N05", "secret":"2cb4c3a178", "server":"7264", "farm":8, "title":"\u0648\u0644\u0627 \u062a\u062d\u0633\u0628\u0646 \u0627\u0644\u0630\u064a\u0646 \u0642\u062a\u0644\u0648 \u0641\u064a \u0633\u0628\u064a\u0644 \u0627\u0644\u0644\u0647 \u0627\u0645\u0648\u0627\u062a\u0627 \u0628\u0644 \u0623\u062d\u064a\u0627\u0621 \u0639\u0646\u062f \u0631\u0628\u0647\u0645 \u064a\u0631\u0632\u0642\u0648\u0646 \u2014 \u0631\u062d\u0645\u0643 \u0627\u0644\u0644\u0647 \u0648\u062a\u0642\u0628\u0644\u0643 \u0645\u0646 \u0627\u0644\u0634\u0647\u062f\u0627\u0621 - \u0627\u0644\u0634\u0647\u064a\u062f \u0645\u062d\u0645\u062f \u062d\u0633\u0627\u0645 \u0627\u0644\u0628\u064a\u0637\u0627\u0631.", "ispublic":1, "isfriend":0, "isfamily":0, "description":{"_content":"\u0648\u0644\u0627 \u062a\u062d\u0633\u0628\u0646 \u0627\u0644\u0630\u064a\u0646 \u0642\u062a\u0644\u0648 \u0641\u064a \u0633\u0628\u064a\u0644 \u0627\u0644\u0644\u0647 \u0627\u0645\u0648\u0627\u062a\u0627 \u0628\u0644 \u0623\u062d\u064a\u0627\u0621 \u0639\u0646\u062f \u0631\u0628\u0647\u0645 \u064a\u0631\u0632\u0642\u0648\u0646 \u2014 \u0631\u062d\u0645\u0643 \u0627\u0644\u0644\u0647 \u0648\u062a\u0642\u0628\u0644\u0643 \u0645\u0646 \u0627\u0644\u0634\u0647\u062f\u0627\u0621 - \u0627\u0644\u0634\u0647\u064a\u062f \u0645\u062d\u0645\u062f \u062d\u0633\u0627\u0645 \u0627\u0644\u0628\u064a\u0637\u0627\u0631. , \u0631\u0627\u0628\u0637 \u0627\u0644\u062f\u0642\u0629 \u0627\u0644\u0639\u0627\u0644\u064a\u0629 High Resolution: <a href=\"http:\/\/on.fb.me\/Hg2NeB\" rel=\"nofollow\">on.fb.me\/Hg2NeB<\/a>"}, "license":"2", "dateupload":"1333519901", "datetaken":"2012-04-04 09:11:41", "datetakengranularity":"0", "ownername":"DoumaRevolution", "iconserver":"7160", "iconfarm":8, "originalsecret":"0925b697cf", "originalformat":"jpg", "lastupdate":"1333519906", "latitude":0, "longitude":0, "accuracy":0, "context":0, "tags":"people news freedom politics demonstration human arab rights revolution syria damascus bashar mar15 douma alassad arabspring", "machine_tags":"", "o_width":"540", "o_height":"720", "views":"0", "media":"photo", "media_status":"ready", "pathalias":"doumarevolution", "url_sq":"http:\/\/farm8.staticflickr.com\/7264\/6898067648_2cb4c3a178_s.jpg", "height_sq":75, "width_sq":75, "url_t":"http:\/\/farm8.staticflickr.com\/7264\/6898067648_2cb4c3a178_t.jpg", "height_t":"100", "width_t":"75", "url_s":"http:\/\/farm8.staticflickr.com\/7264\/6898067648_2cb4c3a178_m.jpg", "height_s":"240", "width_s":"180", "url_m":"http:\/\/farm8.staticflickr.com\/7264\/6898067648_2cb4c3a178.jpg", "height_m":"500", "width_m":"375", "url_z":"http:\/\/farm8.staticflickr.com\/7264\/6898067648_2cb4c3a178_z.jpg", "height_z":"640", "width_z":"480", "url_l":"http:\/\/farm8.staticflickr.com\/7264\/6898067648_2cb4c3a178_b.jpg", "height_l":"720", "width_l":"540", "url_o":"http:\/\/farm8.staticflickr.com\/7264\/6898067648_0925b697cf_o.jpg", "height_o":"720", "width_o":"540"}, {"id":"7043945887", "owner":"38330449@N05", "secret":"1985bb1535", "server":"5032", "farm":6, "title":"Little Boats", "ispublic":1, "isfriend":0, "isfamily":0, "description":{"_content":"Photo by: Abdulhameed Shamandour\nLocation: New York, USA"}, "license":"0", "dateupload":"1333512128", "datetaken":"2010-11-14 21:44:51", "datetakengranularity":"0", "ownername":"Abdulhameed Shamandour", "iconserver":"3339", "iconfarm":4, "originalsecret":"413884b47a", "originalformat":"jpg", "lastupdate":"1333523662", "latitude":40.79448, "longitude":-73.959875, "accuracy":"14", "context":0, "place_id":".skCPTpTVr.Q3WKW", "woeid":"2459115", "geo_is_family":0, "geo_is_friend":0, "geo_is_contact":0, "geo_is_public":1, "tags":"trees sky newyork tree water beauty clouds river landscape photography photo chaos centralpark ashes syria scape damascus waterscape boatsusa abdulhameedwaheedshamandour", "machine_tags":"", "o_width":"900", "o_height":"598", "views":"17", "media":"photo", "media_status":"ready", "pathalias":"prespect", "url_sq":"http:\/\/farm6.staticflickr.com\/5032\/7043945887_1985bb1535_s.jpg", "height_sq":75, "width_sq":75, "url_t":"http:\/\/farm6.staticflickr.com\/5032\/7043945887_1985bb1535_t.jpg", "height_t":"66", "width_t":"100", "url_s":"http:\/\/farm6.staticflickr.com\/5032\/7043945887_1985bb1535_m.jpg", "height_s":"159", "width_s":"240", "url_m":"http:\/\/farm6.staticflickr.com\/5032\/7043945887_1985bb1535.jpg", "height_m":"332", "width_m":"500", "url_z":"http:\/\/farm6.staticflickr.com\/5032\/7043945887_1985bb1535_z.jpg", "height_z":"425", "width_z":"640", "url_l":"http:\/\/farm6.staticflickr.com\/5032\/7043945887_1985bb1535_b.jpg", "height_l":"598", "width_l":"900", "url_o":"http:\/\/farm6.staticflickr.com\/5032\/7043945887_413884b47a_o.jpg", "height_o":"598", "width_o":"900"}]}, "stat":"ok"}|#]

[#|2012-04-04T12:45:23.882+0300|INFO|glassfish3.1|javax.enterprise.system.std.com.sun.enterprise.server.logging|_ThreadID=93;_ThreadName=Thread-1;|after 3|#]

[#|2012-04-04T12:45:23.892+0300|INFO|glassfish3.1|javax.enterprise.system.std.com.sun.enterprise.server.logging|_ThreadID=93;_ThreadName=Thread-1;|Setting flick url = http://farm6.staticflickr.com/5032/6898349440_0a24abf1b0_o.jpg|#]

[#|2012-04-04T12:45:23.894+0300|INFO|glassfish3.1|javax.enterprise.system.std.com.sun.enterprise.server.logging|_ThreadID=93;_ThreadName=Thread-1;|Setting flick url = http://farm8.staticflickr.com/7264/6898067648_0925b697cf_o.jpg|#]

[#|2012-04-04T12:45:23.896+0300|INFO|glassfish3.1|javax.enterprise.system.std.com.sun.enterprise.server.logging|_ThreadID=93;_ThreadName=Thread-1;|Setting flick url = http://farm6.staticflickr.com/5032/7043945887_413884b47a_o.jpg|#]

[#|2012-04-04T12:45:23.898+0300|INFO|glassfish3.1|javax.enterprise.system.std.com.sun.enterprise.server.logging|_ThreadID=93;_ThreadName=Thread-1;|Calling sn class eu.sociosproject.sociosapi.server.adaptors.facebook.FacebookAdapter|#]

 ------ Glassfish ------
 
 -----------------------------------  SOCIOS Search Media Item --------------------------------------------------------
 
 